{
	"host_map": [
    "$.neutrogena.co.uk => www.neutrogena.co.uk",
		"$.neutrogena.co.uk => neutrogena.co.uk"
	],
	"user_agent": "Mozilla/5.0 (Macintosh; Intel Mac OS X 10_7_4) AppleWebKit/536.25 (KHTML, like Gecko) Version/6.0 Safari/536.25"
}
